[
  {
    "pk": "3c049b979befa8e7b87a47248d3d7f3a", 
    "model": "sessions.session", 
    "fields": {
      "expire_date": "2013-04-17T22:19:43Z", 
      "session_data": "ZTgyOWVmZWQwZWFmOWU3NTA2NWZkYTk5OTJkMmIwZjZjNTdjYmM4MjqAAn1xAShVEl9hdXRoX3Vz\nZXJfYmFja2VuZHECVSlkamFuZ28uY29udHJpYi5hdXRoLmJhY2tlbmRzLk1vZGVsQmFja2VuZHED\nVQ1fYXV0aF91c2VyX2lkcQSKAQF1Lg==\n"
    }
  }, 
  {
    "pk": "ac7efb11beea958eb2babc405941d8d7", 
    "model": "sessions.session", 
    "fields": {
      "expire_date": "2013-05-20T23:08:36Z", 
      "session_data": "ZTgyOWVmZWQwZWFmOWU3NTA2NWZkYTk5OTJkMmIwZjZjNTdjYmM4MjqAAn1xAShVEl9hdXRoX3Vz\nZXJfYmFja2VuZHECVSlkamFuZ28uY29udHJpYi5hdXRoLmJhY2tlbmRzLk1vZGVsQmFja2VuZHED\nVQ1fYXV0aF91c2VyX2lkcQSKAQF1Lg==\n"
    }
  }, 
  {
    "pk": 1, 
    "model": "sites.site", 
    "fields": {
      "domain": "example.com", 
      "name": "example.com"
    }
  }, 
  {
    "pk": 1, 
    "model": "virtualstockmarket.league", 
    "fields": { 
      "league_name": "Test League", 
      "start_date": "2013-06-21T05:00:00Z", 
      "end_date": "2016-06-21T05:00:00Z", 
      "starting_balance": "90000.00",
      "league_admin": 1
    }
  }, 
  {
    "pk": 1, 
    "model": "virtualstockmarket.leagueuser", 
    "fields": {
      "current_value": "90000.00", 
      "cash_balance": "90000.00", 
      "user_name": 1, 
      "user_league": 1
    }
  }, 
  {
    "pk": 1, 
    "model": "virtualstockmarket.ticketentry", 
    "fields": {
      "stop_price": null, 
      "order_type": "LIMIT", 
      "portfolio_entry": 1, 
      "order_status": "PENDING", 
      "stop_reached": null, 
      "limit_price": "12.11", 
      "execution_price": null, 
      "order_action": "BUY", 
      "duration": "DAY", 
      "date_added": "2013-04-03T22:21:03Z", 
      "ticker_symbol": "F", 
      "date_executed": "2013-04-03T22:21:03Z", 
      "quantity": "100"
    }
  }, 
  {
    "pk": 2, 
    "model": "virtualstockmarket.ticketentry", 
    "fields": {
      "stop_price": "3.00", 
      "order_type": "MARKET", 
      "portfolio_entry": 2, 
      "order_status": "PENDING", 
      "stop_reached": null, 
      "limit_price": "0.00", 
      "execution_price": null, 
      "order_action": "BUY", 
      "duration": "DAY", 
      "date_added": "2013-05-06T23:20:22Z", 
      "ticker_symbol": "AAPL", 
      "date_executed": "2013-05-06T23:20:22Z", 
      "quantity": "100"
    }
  }, 
  {
    "pk": 3, 
    "model": "virtualstockmarket.ticketentry", 
    "fields": {
      "stop_price": null, 
      "order_type": "MARKET", 
      "portfolio_entry": 3, 
      "order_status": "PENDING", 
      "stop_reached": null, 
      "limit_price": "0.00", 
      "execution_price": null, 
      "order_action": "BUY", 
      "duration": "DAY", 
      "date_added": "2013-05-06T23:21:37Z", 
      "ticker_symbol": "F", 
      "date_executed": "2013-05-06T23:21:37Z", 
      "quantity": "100"
    }
  }, 
  {
    "pk": 4, 
    "model": "virtualstockmarket.ticketentry", 
    "fields": {
      "stop_price": null, 
      "order_type": "MARKET", 
      "portfolio_entry": 4, 
      "order_status": "PENDING", 
      "stop_reached": null, 
      "limit_price": "0.00", 
      "execution_price": null, 
      "order_action": "BUY", 
      "duration": "DAY", 
      "date_added": "2013-05-06T23:22:02Z", 
      "ticker_symbol": "GM", 
      "date_executed": "2013-05-06T23:22:02Z", 
      "quantity": "200"
    }
  }, 
  {
    "pk": 5, 
    "model": "virtualstockmarket.ticketentry", 
    "fields": {
      "stop_price": null, 
      "order_type": "MARKET", 
      "portfolio_entry": 5, 
      "order_status": "PENDING", 
      "stop_reached": null, 
      "limit_price": null, 
      "execution_price": null, 
      "order_action": "BUY", 
      "duration": "DAY", 
      "date_added": "2013-05-06T23:22:48Z", 
      "ticker_symbol": "JPM", 
      "date_executed": "2013-05-06T23:22:48Z", 
      "quantity": "100"
    }
  }, 
  {
    "pk": 6, 
    "model": "virtualstockmarket.ticketentry", 
    "fields": {
      "stop_price": null, 
      "order_type": "MARKET", 
      "portfolio_entry": 6, 
      "order_status": "PENDING", 
      "stop_reached": null, 
      "limit_price": null, 
      "execution_price": null, 
      "order_action": "BUY", 
      "duration": "DAY", 
      "date_added": "2013-05-06T23:23:50Z", 
      "ticker_symbol": "XMR", 
      "date_executed": "2013-05-06T23:23:50Z", 
      "quantity": "100"
    }
  }, 
  {
    "pk": 7, 
    "model": "virtualstockmarket.ticketentry", 
    "fields": {
      "stop_price": null, 
      "order_type": "MARKET", 
      "portfolio_entry": 7, 
      "order_status": "PENDING", 
      "stop_reached": null, 
      "limit_price": null, 
      "execution_price": null, 
      "order_action": "BUY", 
      "duration": "DAY", 
      "date_added": "2013-05-06T23:45:03Z", 
      "ticker_symbol": "AAPL", 
      "date_executed": "2013-05-06T23:45:03Z", 
      "quantity": "100"
    }
  }, 
  {
    "pk": 8, 
    "model": "virtualstockmarket.ticketentry", 
    "fields": {
      "stop_price": null, 
      "order_type": "MARKET", 
      "portfolio_entry": 8, 
      "order_status": "PENDING", 
      "stop_reached": null, 
      "limit_price": null, 
      "execution_price": null, 
      "order_action": "BUY", 
      "duration": "DAY", 
      "date_added": "2013-05-06T23:47:02Z", 
      "ticker_symbol": "xyz", 
      "date_executed": "2013-05-06T23:47:02Z", 
      "quantity": "50"
    }
  }, 
  {
    "pk": 9, 
    "model": "virtualstockmarket.ticketentry", 
    "fields": {
      "stop_price": null, 
      "order_type": "MARKET", 
      "portfolio_entry": 9, 
      "order_status": "PENDING", 
      "stop_reached": null, 
      "limit_price": null, 
      "execution_price": null, 
      "order_action": "BUY", 
      "duration": "DAY", 
      "date_added": "2013-05-06T23:47:18Z", 
      "ticker_symbol": "XYZ", 
      "date_executed": "2013-05-06T23:47:18Z", 
      "quantity": "100"
    }
  }, 
  {
    "pk": 1, 
    "model": "virtualstockmarket.portfolioentry", 
    "fields": {
      "user_league": 1, 
      "open": true, 
      "sell_entry": null, 
      "ticker_symbol": "F", 
      "buy_entry": 1, 
      "user_name": 1, 
      "quantity": "100"
    }
  }, 
  {
    "pk": 2, 
    "model": "virtualstockmarket.portfolioentry", 
    "fields": {
      "user_league": 1, 
      "open": true, 
      "sell_entry": null, 
      "ticker_symbol": "AAPL", 
      "buy_entry": 2, 
      "user_name": 1, 
      "quantity": "100"
    }
  }, 
  {
    "pk": 3, 
    "model": "virtualstockmarket.portfolioentry", 
    "fields": {
      "user_league": 1, 
      "open": true, 
      "sell_entry": null, 
      "ticker_symbol": "F", 
      "buy_entry": 3, 
      "user_name": 1, 
      "quantity": "100"
    }
  }, 
  {
    "pk": 4, 
    "model": "virtualstockmarket.portfolioentry", 
    "fields": {
      "user_league": 1, 
      "open": true, 
      "sell_entry": null, 
      "ticker_symbol": "GM", 
      "buy_entry": 4, 
      "user_name": 1, 
      "quantity": "200"
    }
  }, 
  {
    "pk": 5, 
    "model": "virtualstockmarket.portfolioentry", 
    "fields": {
      "user_league": 1, 
      "open": true, 
      "sell_entry": null, 
      "ticker_symbol": "JPM", 
      "buy_entry": 5, 
      "user_name": 1, 
      "quantity": "100"
    }
  }, 
  {
    "pk": 6, 
    "model": "virtualstockmarket.portfolioentry", 
    "fields": {
      "user_league": 1, 
      "open": true, 
      "sell_entry": null, 
      "ticker_symbol": "XMR", 
      "buy_entry": 6, 
      "user_name": 1, 
      "quantity": "100"
    }
  }, 
  {
    "pk": 7, 
    "model": "virtualstockmarket.portfolioentry", 
    "fields": {
      "user_league": 1, 
      "open": true, 
      "sell_entry": null, 
      "ticker_symbol": "AAPL", 
      "buy_entry": 7, 
      "user_name": 1, 
      "quantity": "100"
    }
  }, 
  {
    "pk": 8, 
    "model": "virtualstockmarket.portfolioentry", 
    "fields": {
      "user_league": 1, 
      "open": true, 
      "sell_entry": null, 
      "ticker_symbol": "xyz", 
      "buy_entry": 8, 
      "user_name": 1, 
      "quantity": "50"
    }
  }, 
  {
    "pk": 9, 
    "model": "virtualstockmarket.portfolioentry", 
    "fields": {
      "user_league": 1, 
      "open": true, 
      "sell_entry": null, 
      "ticker_symbol": "XYZ", 
      "buy_entry": 9, 
      "user_name": 1, 
      "quantity": "100"
    }
  }
]